CAPACITACIÓN R COVID
…
Filtro para extraer los casos confirmados de Estados Unidos.

us<-subset(confirmado,confirmado$country=="US")
us

## # A tibble: 189 x 3
## # Groups:   country [1]
##    country date       confirmados
##    <chr>   <date>           <int>
##  1 US      2020-01-22           1
##  2 US      2020-01-23           0
##  3 US      2020-01-24           1
##  4 US      2020-01-25           0
##  5 US      2020-01-26           3
##  6 US      2020-01-27           0
##  7 US      2020-01-28           0
##  8 US      2020-01-29           0
##  9 US      2020-01-30           0
## 10 US      2020-01-31           2
## # ... with 179 more rows
…
Muertos diarios por país

muerto<-coronavirus %>%
  filter(type == "death") %>%
  group_by(country,date) %>%
  summarise(muertos= sum(cases)) %>%
  arrange(country,date)
muerto

## # A tibble: 35,532 x 3
## # Groups:   country [188]
##    country     date       muertos
##    <chr>       <date>       <int>
##  1 Afghanistan 2020-01-22       0
##  2 Afghanistan 2020-01-23       0
##  3 Afghanistan 2020-01-24       0
##  4 Afghanistan 2020-01-25       0
##  5 Afghanistan 2020-01-26       0
##  6 Afghanistan 2020-01-27       0
##  7 Afghanistan 2020-01-28       0
##  8 Afghanistan 2020-01-29       0
##  9 Afghanistan 2020-01-30       0
## 10 Afghanistan 2020-01-31       0
## # ... with 35,522 more rows

Filtro para extraer los muertos diarios en Ecuador

ecuador<-subset(muerto, muerto$country=="Ecuador")
ecuador

## # A tibble: 189 x 3
## # Groups:   country [1]
##    country date       muertos
##    <chr>   <date>       <int>
##  1 Ecuador 2020-01-22       0
##  2 Ecuador 2020-01-23       0
##  3 Ecuador 2020-01-24       0
##  4 Ecuador 2020-01-25       0
##  5 Ecuador 2020-01-26       0
##  6 Ecuador 2020-01-27       0
##  7 Ecuador 2020-01-28       0
##  8 Ecuador 2020-01-29       0
##  9 Ecuador 2020-01-30       0
## 10 Ecuador 2020-01-31       0
## # ... with 179 more rows
…
Esto es un poco más avanzado, pero se puede obtener lo mismo de arriba de manera más rápida y para todos los países.

base_glob<-coronavirus %>% 
  filter(date == (date)) %>%
  select(country = country, type, cases,date) %>%
  group_by(country, type,date) %>%
  summarise(total_cases = sum(cases)) %>%
  pivot_wider(names_from = type,values_from = total_cases) %>%
  arrange(country,date) %>%
  mutate(date = as.Date(date), confirmados_acum = cumsum(confirmed), 
         recuperados_acum= cumsum(recovered), 
         muertos_acum= cumsum(death))
base_glob

## # A tibble: 35,532 x 8
## # Groups:   country [188]
##    country date       confirmed death recovered confirmados_acum
##    <chr>   <date>         <int> <int>     <int>            <int>
##  1 Afghan~ 2020-01-22         0     0         0                0
##  2 Afghan~ 2020-01-23         0     0         0                0
##  3 Afghan~ 2020-01-24         0     0         0                0
##  4 Afghan~ 2020-01-25         0     0         0                0
##  5 Afghan~ 2020-01-26         0     0         0                0
##  6 Afghan~ 2020-01-27         0     0         0                0
##  7 Afghan~ 2020-01-28         0     0         0                0
##  8 Afghan~ 2020-01-29         0     0         0                0
##  9 Afghan~ 2020-01-30         0     0         0                0
## 10 Afghan~ 2020-01-31         0     0         0                0
## # ... with 35,522 more rows, and 2 more variables: recuperados_acum <int>,
## #   muertos_acum <int>
…
## [1] 3017.738

var(base_glob$confirmed)

## [1] 9106744

Boxplot

Otra forma de ver las medidas de dispersión es mediante un boxplot, para esto vamos a filtrar únicamente los casos de Perú, Ecuador y Colombia

base_sub<-subset(base_glob,base_glob$country%in%c("Ecuador","Colombia","Peru"))
base_sub

## # A tibble: 567 x 8
## # Groups:   country [3]
##    country date       confirmed death recovered confirmados_acum
##    <chr>   <date>         <int> <int>     <int>            <int>
##  1 Colomb~ 2020-01-22         0     0         0                0
##  2 Colomb~ 2020-01-23         0     0         0                0
##  3 Colomb~ 2020-01-24         0     0         0                0
##  4 Colomb~ 2020-01-25         0     0         0                0
##  5 Colomb~ 2020-01-26         0     0         0                0
##  6 Colomb~ 2020-01-27         0     0         0                0
##  7 Colomb~ 2020-01-28         0     0         0                0
##  8 Colomb~ 2020-01-29         0     0         0                0
##  9 Colomb~ 2020-01-30         0     0         0                0
## 10 Colomb~ 2020-01-31         0     0         0                0
## # ... with 557 more rows, and 2 more variables: recuperados_acum <int>,
## #   muertos_acum <int>
…
